222.242.183.253:38801
117.69.47.208:38801
77.37.240.23:4145
103.100.193.63:11337
58.241.203.118:38801
58.241.203.48:38801
212.116.65.244:38708
115.238.59.86:60758
91.236.5.108:51327
200.89.114.58:4145
122.141.111.190:38801
114.99.117.220:38801
171.112.95.113:38801
1.53.137.12:4145
130.180.199.194:31645
181.113.121.194:41206
196.22.215.250:58063
58.243.28.91:38801
112.161.211.65:4145
115.207.6.10:38801
200.77.186.174:4145
58.22.95.133:1080
112.192.193.141:38801
116.115.211.125:38801
191.103.254.145:52973
212.154.58.98:45272
114.238.59.14:38801
27.23.59.93:38801
124.113.241.245:38801
170.79.221.36:4145
103.248.248.146:1080
177.74.113.130:4145
183.91.68.148:4145
180.117.193.147:38801
46.107.230.156:39371
216.198.188.26:61002
49.85.48.125:38801
49.89.34.213:38801
60.162.161.203:38801
1.180.165.21:38801
117.206.83.70:44550
175.173.222.2:38801
46.180.156.230:52665
103.240.161.108:6667
14.157.100.124:38801
112.195.121.127:38801
185.128.38.146:4145
183.148.131.42:38801
103.220.5.254:4145
118.172.201.89:43008
103.243.132.62:34770
177.54.224.222:33633
180.117.193.85:38801
177.53.7.41:49379
188.75.138.234:44713
201.220.140.6:30575
37.200.77.123:4145
60.173.46.7:38801
223.156.166.41:38801
182.52.229.57:4145
186.225.135.54:4145
68.170.36.100:39593
103.29.184.106:60478
213.80.166.5:38442
49.88.172.183:38801
200.9.18.44:4145
117.69.177.253:38801
117.102.86.174:4145
103.77.159.59:4145
96.87.184.101:52355
45.118.115.122:38276
61.132.171.132:38801
92.247.142.182:35944
188.136.143.82:47449
37.152.182.218:1080
222.133.160.151:38801
125.126.194.255:38801
183.150.164.148:38801
218.106.167.102:4145
49.88.175.82:38801
45.250.168.35:4145
223.215.27.105:38801
36.89.106.247:44395
186.225.146.182:4145
117.66.143.170:38801
134.249.142.222:56025
103.94.127.44:50151
183.165.224.136:38801
218.2.60.203:38801
118.175.93.171:30394
36.26.231.114:38801
120.236.254.174:1081
36.89.85.45:52384
106.46.4.107:38801
66.135.227.178:4145
204.101.61.82:4145
118.254.158.202:38801
36.26.226.178:38801
114.98.191.163:38801
117.69.177.25:38801
103.251.214.167:6667
177.124.184.72:39468
180.158.126.81:4145
94.236.153.77:4145
163.47.158.6:52522
223.156.166.187:38801
222.91.15.196:38801
105.27.116.46:34579
117.94.77.227:38801
60.168.64.79:38801
49.87.205.141:38801
183.166.144.211:38801
14.160.23.139:4145
80.107.67.28:4145
1.179.172.45:31225
116.211.115.48:38801
95.31.209.113:1080
209.95.143.254:64312
124.112.163.43:38801
82.137.244.59:4145
221.9.231.3:38801
46.37.127.59:4145
223.72.123.56:1080
58.253.5.178:38801
103.216.82.22:6667
1.10.188.93:37389
89.28.32.203:57391
182.107.205.13:38801
177.73.107.174:4145
114.239.153.212:38801
181.129.96.35:4145
195.117.107.182:4145
117.91.130.183:38801
187.45.106.54:63253
221.9.217.80:38801
60.169.215.35:38801
177.124.185.27:33269
118.254.140.213:38801
36.26.205.148:38801
43.252.194.30:45258
60.172.83.225:38801
105.29.64.195:40400
36.92.222.105:4145
114.99.14.126:38801
188.92.15.45:51327
112.195.154.251:38801
82.147.120.41:49805
58.253.9.70:38801
1.180.164.172:38801
182.202.222.26:38801
178.48.68.73:4145
113.108.94.25:38801
117.69.203.161:38801
181.143.157.242:61938
101.206.114.147:38801
112.87.5.147:38801
121.230.63.95:38801
179.27.73.234:42728
23.115.79.17:64312
121.234.229.37:38801
186.193.7.110:46361
123.49.49.166:8291
49.89.104.157:38801
178.164.166.58:4145
92.39.130.130:4145
171.212.91.104:38801
132.255.94.2:31337
78.188.65.105:54396
36.66.235.147:44866
119.5.0.110:38801
119.42.80.77:4145
117.26.228.67:38801
14.134.188.174:38801
109.188.69.113:3629
185.141.10.67:34006
122.143.87.103:38801
193.187.82.74:55919
175.139.218.221:46278
116.233.115.131:4145
117.40.159.249:32783
183.162.166.165:38801
180.119.95.195:38801
118.254.202.31:38801
47.101.208.240:1080
190.57.150.110:58106
117.69.176.64:38801
47.94.19.105:3001
185.171.54.26:4153
115.48.176.151:38801
49.71.158.132:38801
117.89.95.3:38801
112.65.53.61:38801
175.154.123.200:38801
176.223.1.70:4145
14.157.100.64:38801
109.87.40.23:39539
113.161.207.99:54163
82.99.203.76:58523
86.123.188.209:4145
92.51.89.126:44659
103.102.141.61:4145
91.203.224.177:43820
178.47.131.202:4145
183.234.162.229:1081
103.113.3.74:4145
58.87.93.15:1080
176.102.224.58:4145
38.126.254.114:45685
94.139.161.18:4145
167.233.7.67:1080
202.51.68.14:55681
138.94.28.234:40658
89.102.198.78:45399
182.99.184.230:38801
124.200.36.118:33792
116.229.60.144:4145
220.179.214.244:38801
114.233.8.227:38801
210.56.244.178:4145
113.120.36.242:38801
114.106.137.195:38801
124.112.95.146:38801
89.216.49.25:42815
36.7.250.212:38801
213.191.105.236:56564
36.89.243.187:44454
114.99.8.14:38801
181.113.66.146:42046
171.40.16.57:38801
49.77.210.249:38801
79.144.120.199:4145
223.240.228.49:38801
180.122.148.161:38801
220.179.219.10:38801
114.103.89.123:38801
103.142.68.166:3629
27.23.58.106:38801
176.113.157.149:59423
113.101.253.15:38801
115.207.30.224:38801
183.166.145.254:38801
117.60.35.64:38801
124.195.199.225:4145
49.87.236.191:38801
185.254.44.102:4145
46.231.9.134:44904
81.163.36.139:4145
101.206.115.18:38801
49.85.55.56:38801
118.172.201.80:47353